Gene	FC	pVal
Gene1	0.00139058194285319	0
Gene2	0.00232136175612401	1.0605E-303
Gene3	0.00232136175612401	1.0605E-303
Gene4	0.00601151900475117	3.9616E-259
Gene5	0.0130711108154799	0
Gene6	0.0170642098734378	0
Gene7	0.0186056848661279	6.79521E-25
Gene8	0.0290112508652431	1.36492E-49
Gene9	0.0311020403732287	1.13944E-27
Gene10	0.0353508012456428	2.35154E-90
Gene11	0.0429657052578623	3.00123E-07
Gene12	0.0449210307666033	4.02137E-17
Gene13	0.0468377538601009	0
Gene14	0.057744259338941	2.30651E-68
Gene15	0.065273592016745	0
Gene16	0.0657254688187122	0
Gene17	0.0689741181460721	1.04165E-31
Gene18	0.0689932460560321	1.94787E-45
Gene19	0.0694904703311582	3.31751E-68
Gene20	0.0771791372224563	1.41803E-09
Gene21	0.0866010059223407	5.53623E-13
Gene22	0.100214569522396	2.2058E-248
Gene23	0.101224258125386	2.211E-251
Gene24	0.10311769261887	2.75147E-08
Gene25	0.149643999430184	3.95328E-73
Gene26	0.155317021491154	0.000373686
Gene27	0.155317021491154	0.000373686
Gene28	0.155317021491154	0.000373686
Gene29	0.157270694717458	0.023415436
Gene30	0.159680973563703	1.02577E-08
Gene31	0.164072200336705	7.78334E-81
Gene32	0.165134229453331	1.80141E-07
Gene33	0.168247516065685	9.169E-117
Gene34	0.18120319173968	0.039858363
Gene35	0.186304811234575	0
Gene36	0.287519285038296	1.5282E-108
Gene37	0.309314658448032	1.01979E-22
Gene38	0.317016075061753	2.1645E-218
Gene39	0.332111474860384	8.58557E-09
Gene40	0.347306117501053	0.043663726
Gene41	0.347394378267889	6.72059E-12
Gene42	0.366388871209903	8.13175E-06
Gene43	0.375308809697473	5.985E-06
Gene44	0.410727234609941	0.000389547
Gene45	0.412285971743186	0.003090474
Gene46	0.415541955157091	6.64315E-09
Gene47	0.415541955157091	6.64315E-09
Gene48	0.415541955157091	6.64315E-09
Gene49	0.415541955157091	6.64315E-09
Gene50	0.415541955157091	6.64315E-09
Gene51	0.415541955157091	6.64315E-09
Gene52	0.415541955157091	6.64315E-09
Gene53	0.458241056911619	1.4739E-24
Gene54	0.498023866605285	1.52264E-05
Gene171	2.10577182821691	3.72805E-08
Gene172	2.15329792850654	0.021820438
Gene173	2.16426549011183	0.000499642
Gene174	2.18089211318469	1.14683E-08
Gene175	2.19026793029092	9.65774E-09
Gene176	2.29940601931732	0.006733424
Gene177	2.39895347503166	0.026629537
Gene178	2.49736072039667	6.13048E-20
Gene179	2.54963549789008	0.025736173
Gene180	2.63221478527115	0.000304194
Gene181	2.70898771650821	0.000626407
Gene182	3.01874722671185	3.70107E-05
Gene183	3.04761118107174	8.09884E-09
Gene184	3.05105147751869	2.89317E-07
Gene185	3.05629383400928	0.014467039
Gene186	3.24852825646923	6.14457E-51
Gene187	3.33413872801011	0.030429619
Gene188	3.48569048837421	0.014466698
Gene189	3.70459858667791	0.016357042
Gene190	3.75592736227645	5.5401E-16
Gene191	4.11557749238748	0.000145662
Gene192	4.38702464211857	1.03323E-05
Gene193	4.66779421921416	0.018881492
Gene194	5.73055093876738	3.69441E-07
Gene195	6.02341447568719	9.73666E-10
Gene196	6.33677522082264	2.60773E-58
Gene197	6.35612916052771	0
Gene198	6.43012468973379	0.000353531
Gene199	6.66827745602024	0.001781359
Gene200	6.8198292163843	0.000524506
Gene201	7.04070784585116	1.0041E-49
Gene202	7.33510520162222	0.017861677
Gene203	7.64552501423009	6.47421E-52
Gene204	8.09490412329377	3.28127E-08
Gene205	8.3353468200253	1.53814E-06
Gene206	9.04980511888458	2.85139E-06
Gene207	9.78014026882962	0.004971794
Gene208	11.3488952857268	2.58389E-19
Gene209	12.692459930493	2.02617E-27
Gene210	14.0384788547794	4.3675E-14
Gene211	18.5759157703421	2.67873E-08
Gene212	20.8932163136584	0
Gene213	22.6477472134345	1.6529E-100
Gene214	27.5992594707504	2.13647E-10
Gene215	31.340904043295	8.51398E-10
Gene216	31.340904043295	8.51398E-10
Gene217	33.1746803437006	8.26567E-07
Gene218	33.1746803437006	8.26567E-07
Gene219	33.5497709506018	6.39367E-32
Gene220	39.7243105206611	2.2005E-257
Gene221	45.6777005737384	1.3207E-14
Gene222	46.0527911806397	5.2033E-88
Gene223	54.9537508205953	1.75744E-93
Gene224	61.9197192344734	1.15485E-53
Gene225	92.8001945962811	3.0128E-36
Gene226	212.789496676932	0
Gene227	224.01963143199	0
Gene228	340.466858571802	0
Gene229	522.904090509586	0
Gene230	794.809731271696	0
Gene231	0.245157259412509	0.181923991
Gene232	0.287425752414665	0.079464316
Gene233	0.347306117501055	0.183033766
Gene234	0.400096647361214	0.454986773
Gene235	0.416767341001266	0.183033766
Gene236	0.428674979315587	0.081886939
Gene237	0.438702464211857	0.39098531
Gene238	0.44726251229404	0.270411174
Gene239	0.545009177915831	7.9583E-120
Gene240	0.546876677841391	0.000340085
Gene241	0.547690140667986	0.000148134
Gene242	0.555689788001686	0.68856441
Gene243	0.559823505872048	1.14278E-05
Gene244	0.568461021905335	3.5098E-117
Gene245	0.571566639087448	0.551385247
Gene246	0.573055093876736	0.292324565
Gene247	0.573055093876736	0.292324565
Gene248	0.58837742259002	0.68856441
Gene249	0.608929528169511	0.024447395
Gene250	0.6141834498966	0.583903927
Gene251	0.6141834498966	0.583903927
Gene252	0.639043256201938	0.389023245
Gene253	0.64118052461733	0.75530175
Gene254	0.652331490262849	0.384227295
Gene255	0.666827745602022	0.389026335
Gene256	0.679176407557617	0.651193092
Gene257	0.681646139948734	0.048315206
Gene258	0.70870581658186	0.10173505
Gene259	0.725981819808653	0.144722144
Gene260	0.72934284675221	0.54680716
Gene261	0.740919717335581	0.792188486
Gene262	0.758328545280494	0.365643798
Gene263	0.800827613624307	0.163160824
Gene264	0.800827613624307	0.163160824
Gene265	0.833534682002529	1
Gene266	0.851611337756801	0.63265192
Gene267	0.860422897550996	0.841006065
Gene268	0.88256613388503	1
Gene269	0.909310562184576	1
Gene422	1.00024161840303	1
Gene423	1.09401427012832	0.64487753
Gene424	1.11137957600337	0.76810112
Gene425	1.19076383143218	0.718270618
Gene426	1.28236104923466	0.718270618
Gene427	1.3098402145754	0.597616059
Gene428	1.34647910169639	0.433165994
Gene429	1.35997763905676	0.184495593
Gene430	1.36396584327686	0.677659626
Gene431	1.43400867989251	1.52722E-05
Gene432	1.59170456454732	3.90446E-06
Gene433	1.66706936400505	0.27546562
Gene434	1.66706936400506	0.718270618
Gene435	1.66706936400506	0.438627115
Gene436	1.70495730409608	0.048872122
Gene437	1.77126119925538	0.329380257
Gene438	1.85434348266232	2.31382E-12
Gene439	1.85434348266232	2.31382E-12
Gene440	1.85434348266232	2.31382E-12
Gene441	1.85434348266232	2.31382E-12
Gene442	1.85434348266232	2.31382E-12
Gene443	1.85434348266232	2.31382E-12
Gene444	1.85434348266232	2.31382E-12
Gene445	1.88934527920574	0.156832418
Gene446	1.91404260311692	0.226262483
Gene447	1.96125807530007	0.125101394
Gene448	2.00048323680607	0.253558016
Gene449	2.08383670500632	0.213131796
Gene450	2.22275915200674	0.329377235
Gene451	2.38152766286436	0.213129044
Gene452	2.4697323911186	0.071529336
Gene453	2.50060404600758	0.438627115
Gene454	2.6673109824081	0.166637016
Gene455	3.57229149429656	0.20396276
Gene456	5.30431161274336	0.057842057